{
  "project_info": {
    "project_number": "189690966172",
    "project_id": "todo-list-865d7",
    "storage_bucket": "todo-list-865d7.appspot.com"
  },
  "client": [
    {
      "client_info": {
        "mobilesdk_app_id": "1:189690966172:android:a52d187ac409ed67a6fd59",
        "android_client_info": {
          "package_name": "com.example.todolist"
        }
      },
      "oauth_client": [
        {
          "client_id": "189690966172-mnaep280u4i0s9bbv8f4f70vhoe0kkjj.apps.googleusercontent.com",
          "client_type": 3
        }
      ],
      "api_key": [
        {
          "current_key": "AIzaSyBsr7ZOEKR_FAFux074ts7Hpt4mCpzEDvU"
        }
      ],
      "services": {
        "appinvite_service": {
          "other_platform_oauth_client": [
            {
              "client_id": "189690966172-mnaep280u4i0s9bbv8f4f70vhoe0kkjj.apps.googleusercontent.com",
              "client_type": 3
            }
          ]
        }
      }
    }
  ],
  "configuration_version": "1"
}